<?xml version="1.0" encoding="utf-8"?>
<!-- Generator: Adobe Illustrator 19.2.1, SVG Export Plug-In . SVG Version: 6.00 Build 0)  -->
<svg version="1.1" id="Layer_1" xmlns="http://www.w3.org/2000/svg" xmlns:xlink="http://www.w3.org/1999/xlink" x="0px" y="0px"
	 viewBox="0 0 24.2 24.2" style="enable-background:new 0 0 24.2 24.2;" xml:space="preserve">
<style type="text/css">
	.st0{fill:#036EB5;}
</style>
<path class="st0" d="M12.1,0C5.4,0,0,5.4,0,12.1s5.4,12.1,12.1,12.1s12.1-5.4,12.1-12.1S18.8,0,12.1,0z M16.5,9.8c0,0.1,0,0.2,0,0.3
	c0,3-2.3,6.5-6.5,6.5c-1.3,0-2.5-0.4-3.5-1c0.2,0,0.4,0,0.5,0c1.1,0,2.1-0.4,2.9-1c-1,0-1.9-0.7-2.1-1.6c0.1,0,0.3,0,0.4,0
	c0.2,0,0.4,0,0.6-0.1c-1.1-0.2-1.8-1.1-1.8-2.3c0,0,0,0,0,0C7.3,10.9,7.6,11,8,11c-0.6-0.4-1-1.1-1-1.9C7,8.7,7.1,8.3,7.3,8
	c1.1,1.4,2.8,2.3,4.7,2.4c0-0.2-0.1-0.3-0.1-0.5c0-1.3,1-2.3,2.3-2.3c0.7,0,1.3,0.3,1.7,0.7c0.5-0.1,1-0.3,1.5-0.6
	c-0.2,0.5-0.5,1-1,1.3c0.5-0.1,0.9-0.2,1.3-0.4C17.4,9.1,17,9.5,16.5,9.8z"/>
</svg>
